Longitudinal Data: Fixed Covariates, Time-dependent Outcomes
…
Subjects randomized to either device which filters out pathogens or a similar looking placebo devices.

Subjects record daily whether or not they have a gastro-intestinal episode (yes/no)

Purpose is to determine the amount of GI illness attributable to drinking water.

# Load libraries and read in data
library(ggplot2)
library(data.table)
library(tidyverse)
dat=read_csv("HIVWet.csv")
## Look at data
tbl_df(dat)

## # A tibble: 10,080 x 4
##    id    studyday  hcgi group2  
##    <chr>    <int> <int> <chr>   
##  1 A7283        1    NA filtered
##  2 A7283        2     0 filtered
##  3 A7283        3     0 filtered
##  4 A7283        4     0 filtered
##  5 A7283        5     0 filtered
##  6 A7283        6     0 filtered
##  7 A7283        7     0 filtered
##  8 A7283        8     0 filtered
##  9 A7283        9     0 filtered
## 10 A7283       10     0 filtered
## # ... with 10,070 more rows
…
We will account for different number of time intervals (\(n_i\)) among subjects.

dat4 <- group_by(dat, id) %>% 
  mutate(tot_obs=n()) %>% 
  mutate(tot_notNA = sum(!is.na(hcgi)))  %>% 
  mutate(tot_hcgi = sum(hcgi,na.rm=T)) %>% 
  mutate(obs = rank(studyday)) %>% 
  ungroup() %>% 
  filter(obs==1)
  
  dat5 <- select(dat4,id,group2,tot_notNA,tot_hcgi) 
## Look at data
tbl_df(dat5)

## # A tibble: 45 x 4
##    id    group2     tot_notNA tot_hcgi
##    <chr> <chr>          <int>    <int>
##  1 A7283 filtered         111        0
##  2 C1632 unfiltered       100        3
##  3 C2412 unfiltered       112       86
##  4 C2515 unfiltered       112       23
##  5 C2771 filtered         110        1
##  6 C4722 filtered         112        0
##  7 D1959 unfiltered       112       21
##  8 D3531 filtered         111        0
##  9 E1000 filtered         112       78
## 10 E8776 filtered         112        0
## # ... with 35 more rows
…
\[ E(Y \mid X,T) = T*exp(\beta_0+\beta_1*X) = \lambda(X,T) \]

so,

\[ log(\lambda(X,T))=log(T)+\beta_0+\beta_1*X \]

Thus, adjusting for differing follow-up time if assuming a Poisson distribution of counts is done by simply adding \(log(T)\) as special covariate with coefficient fixed at 1 (not estimated), sometimes called an offset.

Look at rate by group

## Look at data after making it counts and total time
tbl_df(dat5)

## # A tibble: 45 x 4
##    id    group2     tot_notNA tot_hcgi
##    <chr> <chr>          <int>    <int>
##  1 A7283 filtered         111        0
##  2 C1632 unfiltered       100        3
##  3 C2412 unfiltered       112       86
##  4 C2515 unfiltered       112       23
##  5 C2771 filtered         110        1
##  6 C4722 filtered         112        0
##  7 D1959 unfiltered       112       21
##  8 D3531 filtered         111        0
##  9 E1000 filtered         112       78
## 10 E8776 filtered         112        0
## # ... with 35 more rows
…
